{
	"info": {
		"_postman_id": "e4029e1f-56b7-4142-8420-ac906f281701",
		"name": "CursoTechU-Lab1",
		"schema": "https://schema.getpostman.com/json/collection/v2.1.0/collection.json"
	},
	"item": [
		{
			"name": "Busca Productos",
			"request": {
				"method": "GET",
				"header": [],
				"url": {
					"raw": "http://localhost:9999/apitechu/v1/productos",
					"protocol": "http",
					"host": [
						"localhost"
					],
					"port": "9999",
					"path": [
						"apitechu",
						"v1",
						"productos"
					]
				}
			},
			"response": []
		},
		{
			"name": "Busca Productos por ID",
			"request": {
				"method": "GET",
				"header": [],
				"url": {
					"raw": "http://localhost:9999/apitechu/v1/productos/6",
					"protocol": "http",
					"host": [
						"localhost"
					],
					"port": "9999",
					"path": [
						"apitechu",
						"v1",
						"productos",
						"6"
					]
				}
			},
			"response": []
		},
		{
			"name": "agrega Productos 7",
			"request": {
				"method": "POST",
				"header": [],
				"body": {
					"mode": "raw",
					"raw": "{\r\n    \"id\": 7,\r\n    \"descripcion\": \"producto 7 probando metodo POST\",\r\n    \"precio\": 1595.5,\r\n    \"usuarios\": []\r\n}",
					"options": {
						"raw": {
							"language": "json"
						}
					}
				},
				"url": {
					"raw": "http://localhost:9999/apitechu/v1/productos/",
					"protocol": "http",
					"host": [
						"localhost"
					],
					"port": "9999",
					"path": [
						"apitechu",
						"v1",
						"productos",
						""
					]
				}
			},
			"response": []
		},
		{
			"name": "actualiza Producto 7 PrimeroNo exite",
			"request": {
				"method": "PUT",
				"header": [],
				"body": {
					"mode": "raw",
					"raw": "{\r\n    \"id\":7,\r\n    \"descripcion\": \"producto 7 probando metodo PUT con mas datos \",\r\n    \"precio\": 120.5,\r\n    \"usuarios\": []\r\n}",
					"options": {
						"raw": {
							"language": "json"
						}
					}
				},
				"url": {
					"raw": "http://localhost:9999/apitechu/v1/productos/7",
					"protocol": "http",
					"host": [
						"localhost"
					],
					"port": "9999",
					"path": [
						"apitechu",
						"v1",
						"productos",
						"7"
					]
				}
			},
			"response": []
		},
		{
			"name": "Borra Producto 7",
			"request": {
				"method": "DELETE",
				"header": [],
				"url": {
					"raw": "http://localhost:9999/apitechu/v1/productos/1",
					"protocol": "http",
					"host": [
						"localhost"
					],
					"port": "9999",
					"path": [
						"apitechu",
						"v1",
						"productos",
						"1"
					]
				}
			},
			"response": []
		},
		{
			"name": "patch Precio actualiza 7",
			"request": {
				"method": "PATCH",
				"header": [],
				"body": {
					"mode": "raw",
					"raw": "{\r\n    \"id\":1,\r\n    \"precio\": 999999999999.5\r\n\r\n}",
					"options": {
						"raw": {
							"language": "json"
						}
					}
				},
				"url": {
					"raw": "http://localhost:9999/apitechu/v1/productos/7",
					"protocol": "http",
					"host": [
						"localhost"
					],
					"port": "9999",
					"path": [
						"apitechu",
						"v1",
						"productos",
						"7"
					]
				}
			},
			"response": []
		},
		{
			"name": "busca subrecurso del producto",
			"request": {
				"method": "GET",
				"header": [],
				"url": {
					"raw": "http://localhost:9999/apitechu/v1/productos/2/users",
					"protocol": "http",
					"host": [
						"localhost"
					],
					"port": "9999",
					"path": [
						"apitechu",
						"v1",
						"productos",
						"2",
						"users"
					]
				}
			},
			"response": []
		}
	]
}